{
    "hosting": {
        "public": "dist/lab01",
        "ignore": [
            "firebase.json",
            "**/.*",
            "**/node_modules/**"
        ],
        "rewrites": [{
            "source": "**",
            "destination": "/index.html"
        }]
    }
}